…
``` r
cat("\nBrand counts after combining rare brands:\n")
```

```
## 
## Brand counts after combining rare brands:
```

``` r
print(car_model %>% count(brand_group, sort = TRUE))
```

```
## # A tibble: 35 x 2
##    brand_group       n
##    <chr>         <int>
##  1 Ford            382
##  2 BMW             375
##  3 Mercedes-Benz   306
##  4 Chevrolet       292
##  5 Audi            200
##  6 Toyota          199
##  7 Porsche         188
##  8 Lexus           163
##  9 Jeep            143
## 10 Land            130
## # i 25 more rows
```
…
